…
### Total\_GT\_20 is sum of other biomass numbers

``` r
flowcam_data[41:45] %>%
  mutate(check = Total_Diatom_Biomass + Total_Dino_Biomass + 
           Total_Ciliate_Biomass + Total_Other_and_UID_Biomass)
#> # A tibble: 44 x 6
#>    Total_Diatom_Biomass Total_Dino_Biomass Total_Ciliate_Bio~ Total_Other_and_U~
#>                   <dbl>              <dbl>              <dbl>              <dbl>
#>  1                 9.81              0.187               1.60               2.75
#>  2                14.1               0.209               5.99               7.18
#>  3                 5.92              0.119              51.7                4.01
#>  4                 4.84              0.148               6.14               4.70
#>  5                10.5               0.542              13.6                7.69
#>  6                 6.87              0.393              38.8                7.70
#>  7                 6.62              0.863              16.0                4.51
#>  8                 7.64              0.944               6.57               7.26
#>  9                 6.66              0.675               1.65               2.96
#> 10                 4.08              0.823               9.62               3.79
#> # ... with 34 more rows, and 2 more variables: Total_GT_20 <dbl>, check <dbl>
```
…
