…
my_order <- my_order %>%
  sort(decreasing = TRUE) %>%
  names
```

``` r
phyto_community <- phyto_community %>%
  select(Sample_ID, all_of(my_order))
phyto_community
#> # A tibble: 74 x 30
#>    Sample_ID     Short_Centric_Ch~ Single_Centric Other_and_UID Long_Centric_Ch~
#>    <chr>                     <dbl>          <dbl>         <dbl>            <dbl>
#>  1 SNT_2016-04-~        515404126.     393521177.     30094751.        48084658.
#>  2 SNT_2016-04-~        792749612.     423227030.     83551618.       273230718.
#>  3 SNT_2016-04-~        289489421.     140231480.     45049729.        86272835.
#>  4 SNT_2016-04-~         12372311.     125908023.     39174297.        16583335.
#>  5 SNT_2016-04-~          4477018.      92164596.     49913765.         2953400.
#>  6 SNT_2016-04-~          7159346.      23733969.     50650455.          208803.
#>  7 SNT_2016-05-~        289374805.      42191647.     53694682.        66354278.
#>  8 SNT_2016-05-~        498014917.      51250846.     90593710.       478476268.
#>  9 SNT_2016-05-~        338594890.     104263061.     90881112.       164137335.
#> 10 SNT_2016-05-~         35047615.      10166343.     81562247.        12258280.
#> # ... with 64 more rows, and 25 more variables: Other_Dinos <dbl>,
#> #   Mesodinium <dbl>, Single_Pennate <dbl>, Strom-Strob <dbl>,
#> #   Other_Ciliates <dbl>, Chaetoceros <dbl>, Thallassionema <dbl>,
#> #   Prorocentrum <dbl>, Dinophysis <dbl>, Dictyocha <dbl>, C_longipes <dbl>,
#> #   C_lineatum <dbl>, Rhizosolenia <dbl>, Mediopyxis <dbl>, Laboea <dbl>,
#> #   C_fusus <dbl>, Pseudo-nitzschia <dbl>, Mixed_Diatoms <dbl>,
#> #   Asternionellopsis <dbl>, Curly_Centric_Chains <dbl>, C_socialis <dbl>, ...
```
…
We need to convert each array to a data frame (tibble) and append them,
retaining their cluster identities. This can be done in several ways.
Here I convert the arrays to tibbles, then bind them into one tibble
with `bind_rows()`, which conveniently allows you to label each entry
with the source data frame (here the cluster number).

``` r
hullsdfs <- map(hull, as_tibble) # Creates a list of tibbles
hulls_df <- hullsdfs %>%
  bind_rows(.id = 'Cluster')  # converts number in the list to a variable
hulls_df
#> # A tibble: 28 x 3
#>    Cluster   NMDS1   NMDS2
#>    <chr>     <dbl>   <dbl>
#>  1 1        0.197  -0.381 
#>  2 1        0.110  -0.534 
#>  3 1       -0.0313 -0.735 
#>  4 1       -0.340  -0.426 
#>  5 1       -0.700  -0.0153
#>  6 1       -0.459   0.280 
#>  7 1        0.0756  0.360 
#>  8 1        0.266  -0.192 
#>  9 1        0.197  -0.381 
#> 10 2        0.446   0.155 
#> # ... with 18 more rows
```
…
