…
``` r
zoopl_community <- zoopl_community %>%
  select(new_id, all_of(my_order))
zoopl_community
#> # A tibble: 50 x 19
#>    new_id  Acartia Pseudocalanus Eurytemora Centropages Balanus Temora Gastropod
#>    <chr>     <dbl>         <dbl>      <dbl>       <dbl>   <dbl>  <dbl>     <dbl>
#>  1 Bagadu~      55           103          0         116      32      0        32
#>  2 Bagadu~      50           126          0          64      79      0         0
#>  3 Bagadu~      41           147          0         154       0      0         0
#>  4 Bagadu~      67           104         83          40      32      0         0
#>  5 Bagadu~      45            41         31         106      15      0        17
#>  6 Bagadu~     211            42          0           0      81     48       134
#>  7 Bagadu~     297            72         62          79      53      0         0
#>  8 Bagadu~      98           116         33           0      94     50         0
#>  9 Bagadu~     150             0         33          32      38      0        83
#> 10 Bagadu~     772            49          0           0       0      0         0
#> # ... with 40 more rows, and 11 more variables: Evadne <dbl>,
#> #   Pseudodiaptomus <dbl>, Oithona <dbl>, Membranipora <dbl>, Oikopleura <dbl>,
#> #   Tortanus <dbl>, Obelia <dbl>, Podonidae <dbl>, Bivalve <dbl>,
#> #   Crangon <dbl>, Bougainvillia <dbl>
```
…
