…
It’s possible the first is a mis-labeling, since a duplicate is adjacent
to the missing value. The second, however, can not be explained away so
readily.

Let’s check sample alignment. it suggests the two Tabs are inconsistent.
I need to know which is correct before I can continue.

``` r
collection_data %>%
  select(Sample_ID, Total_Phyto_Conc) %>%
  rename(Total = Total_Phyto_Conc) %>%
  full_join(pico_data, by = "Sample_ID") %>%
  select(Sample_ID, Total, Total_Phyto_Conc)
#> # A tibble: 79 x 3
#>    Sample_ID             Total Total_Phyto_Conc
#>    <chr>                 <dbl>            <dbl>
#>  1 SNT_2016-04-19_LOBO1 26461.           26461.
#>  2 SNT_2016-04-19_LOBO2 17741.           17741.
#>  3 SNT_2016-04-19_UNE3  19880.           19880.
#>  4 SNT_2016-04-20_BUOY  20470.           20470.
#>  5 SNT_2016-04-20_RAM   17249.           17249.
#>  6 SNT_2016-04-20_WOOD  18838.           18838.
#>  7 SNT_2016-05-03_LOBO1 22383.           22383.
#>  8 SNT_2016-05-03_LOBO2 13474.           13474.
#>  9 SNT_2016-05-03_UNE3  12049.           12049.
#> 10 SNT_2016-05-04_BUOY  20920.           20920.
#> # ... with 69 more rows
```
…
