…
We focus on the five most abundant species.

``` r
zoopl_community <- zoopl_community %>%
  select(new_id, all_of(my_order)) %>%
  select(1:6) %>%
  arrange(new_id)
zoopl_community
#> # A tibble: 50 x 6
#>    new_id              Acartia Pseudocalanus Eurytemora Centropages Balanus
#>    <chr>                 <dbl>         <dbl>      <dbl>       <dbl>   <dbl>
#>  1 3/4_BUOY_2016-05-18      85            91         22           0      51
#>  2 3/4_BUOY_2016-06-15      71            75         29           0       0
#>  3 3/4_BUOY_2016-07-20      26           215         30          24       0
#>  4 3/4_BUOY_2016-08-03     130           158         69         257       0
#>  5 3/4_BUOY_2016-10-12      35             0          0         414       0
#>  6 BRE_1_2017-06-21         55           103          0         116      32
#>  7 BRE_1_2017-07-19         50           126          0          64      79
#>  8 BRE_1_2017-08-17         41           147          0         154       0
#>  9 BRE_2_2017-07-19         67           104         83          40      32
#> 10 BRE_2_2017-08-17         45            41         31         106      15
#> # ... with 40 more rows
```
…
#> Warning in mask$eval_all_mutate(quo): NAs introduced by coercion

#> Warning in mask$eval_all_mutate(quo): NAs introduced by coercion

#> Warning in mask$eval_all_mutate(quo): NAs introduced by coercion

#> Warning in mask$eval_all_mutate(quo): NAs introduced by coercion

#> Warning in mask$eval_all_mutate(quo): NAs introduced by coercion
```

``` r
enviro_data
#> # A tibble: 49 x 14
#>    new_id       date                salinity ave_sal_psu sur.sal bot.sal max.sal
#>    <chr>        <dttm>                 <dbl>       <dbl>   <dbl>   <dbl>   <dbl>
#>  1 3/4_BUOY_20~ 2016-05-18 00:00:00       32        7.76    4.99    8.94    8.94
#>  2 3/4_BUOY_20~ 2016-06-15 00:00:00       30       31.5    31.7    31.9    31.9 
#>  3 3/4_BUOY_20~ 2016-07-20 00:00:00       33       NA      NA      NA      NA   
#>  4 3/4_BUOY_20~ 2016-08-03 00:00:00       31       NA      NA      NA      NA   
#>  5 3/4_BUOY_20~ 2016-10-12 00:00:00       33       32.3    31.8    32.6    32.6 
#>  6 BRE_1_2017-~ 2017-06-21 00:00:00       NA       30.4    27.4    30.8    30.8 
#>  7 BRE_1_2017-~ 2017-07-19 00:00:00       NA       31.0    28.0    31.1    31.3 
#>  8 BRE_1_2017-~ 2017-08-17 00:00:00       NA       31.0    30.8    31.1    31.2 
#>  9 BRE_2_2017-~ 2017-07-19 00:00:00       NA       31.1    32.6    30.7    32.6 
#> 10 BRE_2_2017-~ 2017-08-17 00:00:00       NA       30.7    30.8    30.6    30.9 
#> # ... with 39 more rows, and 7 more variables: sal.gradient <dbl>, sst <dbl>,
#> #   ave_temp_c <dbl>, sur_temp <dbl>, bot.temp <dbl>, max.temp <dbl>,
#> #   temp.gradient <dbl>
```

``` r
test <- enviro_data %>%
  select(-contains('sur'), -contains('bot.'), -contains('max.')) %>%
  mutate(year  = as.numeric(format(date, format = '%Y')),
         month = as.numeric(format(date, format = '%m')),
         month = factor(month, levels = 1:12, labels = month.abb ),
         doy = as.numeric(format(date, format = '%j'))) %>%
  mutate(site = substr(new_id, 1, nchar(new_id)-11)) %>%
  relocate(year, month, doy, .after = date) %>%
  relocate(site, .after = new_id)
test
#> # A tibble: 49 x 12
#>    new_id      site   date                 year month   doy salinity ave_sal_psu
#>    <chr>       <chr>  <dttm>              <dbl> <fct> <dbl>    <dbl>       <dbl>
#>  1 3/4_BUOY_2~ 3/4_B~ 2016-05-18 00:00:00  2016 May     139       32        7.76
#>  2 3/4_BUOY_2~ 3/4_B~ 2016-06-15 00:00:00  2016 Jun     167       30       31.5 
#>  3 3/4_BUOY_2~ 3/4_B~ 2016-07-20 00:00:00  2016 Jul     202       33       NA   
#>  4 3/4_BUOY_2~ 3/4_B~ 2016-08-03 00:00:00  2016 Aug     216       31       NA   
#>  5 3/4_BUOY_2~ 3/4_B~ 2016-10-12 00:00:00  2016 Oct     286       33       32.3 
#>  6 BRE_1_2017~ BRE_1  2017-06-21 00:00:00  2017 Jun     172       NA       30.4 
#>  7 BRE_1_2017~ BRE_1  2017-07-19 00:00:00  2017 Jul     200       NA       31.0 
#>  8 BRE_1_2017~ BRE_1  2017-08-17 00:00:00  2017 Aug     229       NA       31.0 
#>  9 BRE_2_2017~ BRE_2  2017-07-19 00:00:00  2017 Jul     200       NA       31.1 
#> 10 BRE_2_2017~ BRE_2  2017-08-17 00:00:00  2017 Aug     229       NA       30.7 
#> # ... with 39 more rows, and 4 more variables: sal.gradient <dbl>, sst <dbl>,
#> #   ave_temp_c <dbl>, temp.gradient <dbl>
```
…
### Surface Salinity data is available

We use `salinity` as a surrogate for the surface data suite of
observations, including `sst` and `sechi_depth`.

``` r
sal_dat <- test %>%
  select(new_id, site, date, year, month, salinity) %>%
  filter(! is.na(salinity))
sal_dat
#> # A tibble: 30 x 6
#>    new_id              site     date                 year month salinity
#>    <chr>               <chr>    <dttm>              <dbl> <fct>    <dbl>
#>  1 3/4_BUOY_2016-05-18 3/4_BUOY 2016-05-18 00:00:00  2016 May         32
#>  2 3/4_BUOY_2016-06-15 3/4_BUOY 2016-06-15 00:00:00  2016 Jun         30
#>  3 3/4_BUOY_2016-07-20 3/4_BUOY 2016-07-20 00:00:00  2016 Jul         33
#>  4 3/4_BUOY_2016-08-03 3/4_BUOY 2016-08-03 00:00:00  2016 Aug         31
#>  5 3/4_BUOY_2016-10-12 3/4_BUOY 2016-10-12 00:00:00  2016 Oct         33
#>  6 DRE_2_2016-06-14    DRE_2    2016-06-14 00:00:00  2016 Jun         30
#>  7 DRE_2_2016-07-19    DRE_2    2016-07-19 00:00:00  2016 Jul         31
#>  8 DRE_2_2016-08-02    DRE_2    2016-08-02 00:00:00  2016 Aug         32
#>  9 DRE_2_2016-08-16    DRE_2    2016-08-16 00:00:00  2016 Aug         33
#> 10 DRE_2_2016-08-30    DRE_2    2016-08-30 00:00:00  2016 Aug         32
#> # ... with 20 more rows
```
…
