…
``` r
zoopl_community <- zoopl_community %>%
  select(new_id, all_of(my_order))
zoopl_community
#> # A tibble: 50 x 19
#>    new_id  Acartia Pseudocalanus Eurytemora Centropages Balanus Temora Gastropod
#>    <chr>     <dbl>         <dbl>      <dbl>       <dbl>   <dbl>  <dbl>     <dbl>
#>  1 Bagadu~      55           103          0         116      32      0        32
#>  2 Bagadu~      50           126          0          64      79      0         0
#>  3 Bagadu~      41           147          0         154       0      0         0
#>  4 Bagadu~      67           104         83          40      32      0         0
#>  5 Bagadu~      45            41         31         106      15      0        17
#>  6 Bagadu~     211            42          0           0      81     48       134
#>  7 Bagadu~     297            72         62          79      53      0         0
#>  8 Bagadu~      98           116         33           0      94     50         0
#>  9 Bagadu~     150             0         33          32      38      0        83
#> 10 Bagadu~     772            49          0           0       0      0         0
#> # ... with 40 more rows, and 11 more variables: Evadne <dbl>,
#> #   Pseudodiaptomus <dbl>, Oithona <dbl>, Membranipora <dbl>, Oikopleura <dbl>,
#> #   Tortanus <dbl>, Obelia <dbl>, Podonidae <dbl>, Bivalve <dbl>,
#> #   Crangon <dbl>, Bougainvillia <dbl>
```
…
We need to convert each array to a data frame (tibble) and append them,
retaining their cluster identities. This can be done in several ways.
Here I convert the arrays to tibbles, then bind them into one tibble
with `bind_rows()`, which conveniently allows you to label each entry
with the source data frame (here the cluster number).

``` r
hullsdfs <- map(hull, as_tibble) # Creates a list of tibbles
hulls_df <- hullsdfs %>%
  bind_rows(.id = 'Cluster')  # converts number in the list to a variable
hulls_df
#> # A tibble: 30 x 3
#>    Cluster  NMDS1   NMDS2
#>    <chr>    <dbl>   <dbl>
#>  1 1        0.284 -0.331 
#>  2 1       -0.117 -0.691 
#>  3 1       -0.626 -0.399 
#>  4 1       -0.632 -0.0916
#>  5 1       -0.338  0.304 
#>  6 1        0.478  0.352 
#>  7 1        0.284 -0.331 
#>  8 2       -0.130  0.110 
#>  9 2       -0.384  0.182 
#> 10 2       -0.441  0.685 
#> # ... with 20 more rows
```
…
